%YAML 1.1
%TAG !u! tag:unity3d.com,2011:
--- !u!1 &1448559552365984346
GameObject:
  m_ObjectHideFlags: 0
  m_CorrespondingSourceObject: {fileID: 0}
  m_PrefabInstance: {fileID: 0}
  m_PrefabAsset: {fileID: 0}
  serializedVersion: 6
  m_Component:
  - component: {fileID: 1735978896627218315}
  - component: {fileID: 1948601019}
  m_Layer: 0
  m_Name: TreeB_Parent
  m_TagString: Tree
  m_Icon: {fileID: 0}
  m_NavMeshLayer: 0
  m_StaticEditorFlags: 0
  m_IsActive: 1
--- !u!4 &1735978896627218315
Transform:
  m_ObjectHideFlags: 0
  m_CorrespondingSourceObject: {fileID: 0}
  m_PrefabInstance: {fileID: 0}
  m_PrefabAsset: {fileID: 0}
  m_GameObject: {fileID: 1448559552365984346}
  m_LocalRotation: {x: 0, y: 0, z: 0, w: 1}
  m_LocalPosition: {x: 0, y: 0, z: 0}
  m_LocalScale: {x: 1.19, y: 1.19, z: 1.19}
  m_ConstrainProportionsScale: 1
  m_Children:
  - {fileID: 7449127195116045631}
  m_Father: {fileID: 0}
  m_RootOrder: 0
  m_LocalEulerAnglesHint: {x: 0, y: 0, z: 0}
--- !u!95 &1948601019
Animator:
  serializedVersion: 5
  m_ObjectHideFlags: 0
  m_CorrespondingSourceObject: {fileID: 0}
  m_PrefabInstance: {fileID: 0}
  m_PrefabAsset: {fileID: 0}
  m_GameObject: {fileID: 1448559552365984346}
  m_Enabled: 1
  m_Avatar: {fileID: 0}
  m_Controller: {fileID: 9100000, guid: c0d0f6a26871f364c8818a951f28d4b2, type: 2}
  m_CullingMode: 0
  m_UpdateMode: 0
  m_ApplyRootMotion: 0
  m_LinearVelocityBlending: 0
  m_StabilizeFeet: 0
  m_WarningMessage: 
  m_HasTransformHierarchy: 1
  m_AllowConstantClipSamplingOptimization: 1
  m_KeepAnimatorStateOnDisable: 0
  m_WriteDefaultValuesOnDisable: 0
--- !u!1001 &2816136490974567488
PrefabInstance:
  m_ObjectHideFlags: 0
  serializedVersion: 2
  m_Modification:
    m_TransformParent: {fileID: 1735978896627218315}
    m_Modifications:
    - target: {fileID: 4639079716015151263, guid: fd63db2300dac1c44a26e03a95a77ce5, type: 3}
      propertyPath: m_Name
      value: Birch_tree2 Variant
      objectReference: {fileID: 0}
    - target: {fileID: 4639079716015151263, guid: fd63db2300dac1c44a26e03a95a77ce5, type: 3}
      propertyPath: m_StaticEditorFlags
      value: 0
      objectReference: {fileID: 0}
    - target: {fileID: 4644460813738170751, guid: fd63db2300dac1c44a26e03a95a77ce5, type: 3}
      propertyPath: m_RootOrder
      value: 0
      objectReference: {fileID: 0}
    - target: {fileID: 4644460813738170751, guid: fd63db2300dac1c44a26e03a95a77ce5, type: 3}
      propertyPath: m_LocalPosition.x
      value: 0
      objectReference: {fileID: 0}
    - target: {fileID: 4644460813738170751, guid: fd63db2300dac1c44a26e03a95a77ce5, type: 3}
      propertyPath: m_LocalPosition.y
      value: 0.33
      objectReference: {fileID: 0}
    - target: {fileID: 4644460813738170751, guid: fd63db2300dac1c44a26e03a95a77ce5, type: 3}
      propertyPath: m_LocalPosition.z
      value: 0
      objectReference: {fileID: 0}
    - target: {fileID: 4644460813738170751, guid: fd63db2300dac1c44a26e03a95a77ce5, type: 3}
      propertyPath: m_LocalRotation.w
      value: 1
      objectReference: {fileID: 0}
    - target: {fileID: 4644460813738170751, guid: fd63db2300dac1c44a26e03a95a77ce5, type: 3}
      propertyPath: m_LocalRotation.x
      value: -0
      objectReference: {fileID: 0}
    - target: {fileID: 4644460813738170751, guid: fd63db2300dac1c44a26e03a95a77ce5, type: 3}
      propertyPath: m_LocalRotation.y
      value: -0
      objectReference: {fileID: 0}
    - target: {fileID: 4644460813738170751, guid: fd63db2300dac1c44a26e03a95a77ce5, type: 3}
      propertyPath: m_LocalRotation.z
      value: -0
      objectReference: {fileID: 0}
    - target: {fileID: 4644460813738170751, guid: fd63db2300dac1c44a26e03a95a77ce5, type: 3}
      propertyPath: m_LocalEulerAnglesHint.x
      value: 0
      objectReference: {fileID: 0}
    - target: {fileID: 4644460813738170751, guid: fd63db2300dac1c44a26e03a95a77ce5, type: 3}
      propertyPath: m_LocalEulerAnglesHint.y
      value: 0
      objectReference: {fileID: 0}
    - target: {fileID: 4644460813738170751, guid: fd63db2300dac1c44a26e03a95a77ce5, type: 3}
      propertyPath: m_LocalEulerAnglesHint.z
      value: 0
      objectReference: {fileID: 0}
    - target: {fileID: 4720187370863694139, guid: fd63db2300dac1c44a26e03a95a77ce5, type: 3}
      propertyPath: m_Radius
      value: 1.1
      objectReference: {fileID: 0}
    - target: {fileID: 5456520635031167072, guid: fd63db2300dac1c44a26e03a95a77ce5, type: 3}
      propertyPath: m_Size.x
      value: 8
      objectReference: {fileID: 0}
    - target: {fileID: 5456520635031167072, guid: fd63db2300dac1c44a26e03a95a77ce5, type: 3}
      propertyPath: m_Size.z
      value: 8
      objectReference: {fileID: 0}
    m_RemovedComponents: []
  m_SourcePrefab: {fileID: 100100000, guid: fd63db2300dac1c44a26e03a95a77ce5, type: 3}
--- !u!4 &7449127195116045631 stripped
Transform:
  m_CorrespondingSourceObject: {fileID: 4644460813738170751, guid: fd63db2300dac1c44a26e03a95a77ce5, type: 3}
  m_PrefabInstance: {fileID: 2816136490974567488}
  m_PrefabAsset: {fileID: 0}
